{
  "project_info": {
    "project_number": "619405611869",
    "project_id": "gms-demo-57117",
    "storage_bucket": "gms-demo-57117.appspot.com"
  },
  "client": [
    {
      "client_info": {
        "mobilesdk_app_id": "1:619405611869:android:d2153265b94e7503618eb4",
        "android_client_info": {
          "package_name": "com.azinova.gms_customer"
        }
      },
      "oauth_client": [
        {
          "client_id": "619405611869-279jk991pdn3kked3ojr4t2983ifccol.apps.googleusercontent.com",
          "client_type": 3
        }
      ],
      "api_key": [
        {
          "current_key": "AIzaSyC3vMfm42HP2xqIicq-TsGw6YodfKIBZvM"
        }
      ],
      "services": {
        "appinvite_service": {
          "other_platform_oauth_client": [
            {
              "client_id": "619405611869-279jk991pdn3kked3ojr4t2983ifccol.apps.googleusercontent.com",
              "client_type": 3
            }
          ]
        }
      }
    },
    {
      "client_info": {
        "mobilesdk_app_id": "1:619405611869:android:487eb25f65fe16d1618eb4",
        "android_client_info": {
          "package_name": "com.example.gms_demo"
        }
      },
      "oauth_client": [
        {
          "client_id": "619405611869-279jk991pdn3kked3ojr4t2983ifccol.apps.googleusercontent.com",
          "client_type": 3
        }
      ],
      "api_key": [
        {
          "current_key": "AIzaSyC3vMfm42HP2xqIicq-TsGw6YodfKIBZvM"
        }
      ],
      "services": {
        "appinvite_service": {
          "other_platform_oauth_client": [
            {
              "client_id": "619405611869-279jk991pdn3kked3ojr4t2983ifccol.apps.googleusercontent.com",
              "client_type": 3
            }
          ]
        }
      }
    }
  ],
  "configuration_version": "1"
}